<?xml version="1.0" encoding="iso-8859-1"?>
<!-- Generator: Adobe Illustrator 19.0.0, SVG Export Plug-In . SVG Version: 6.00 Build 0)  -->
<svg version="1.1" id="Layer_1" xmlns="http://www.w3.org/2000/svg" xmlns:xlink="http://www.w3.org/1999/xlink" x="0px" y="0px"
	 viewBox="0 0 762.423 841.89" style="enable-background:new 0 0 762.423 841.89;" xml:space="preserve">
<path id="XMLID_53_" style="fill:#3A3A37;" d="M583.441,118.51l-108.82,108.82l-395.85-0.01V552.3h141.74V369.05h212.6v212.6
	l-183.25,0.01l0.01,141.72h324.97V327.54l108.81-108.81L583.441,118.51z"/>
</svg>
